{
  "builder": "cmake",
  "kill": "qmlscene",
  "scripts": {
    "ilogs": "adb shell \"tail -f /home/phablet/.cache/upstart/ubuntouchfr-indicator-ice.log\"",
    "ilog": "adb shell \"cat /home/phablet/.cache/upstart/ubuntouchfr-indicator-ice.log\""
  }
}
