<?xml version="1.0" standalone="no"?>
<!DOCTYPE svg PUBLIC "-//W3C//DTD SVG 20010904//EN"
 "http://www.w3.org/TR/2001/REC-SVG-20010904/DTD/svg10.dtd">
<svg version="1.0" xmlns="http://www.w3.org/2000/svg"
 width="256.000000pt" height="256.000000pt" viewBox="0 0 256.000000 256.000000"
 preserveAspectRatio="xMidYMid meet">
<metadata>
Created by potrace 1.16, written by Peter Selinger 2001-2019
</metadata>
<g transform="translate(0.000000,256.000000) scale(0.100000,-0.100000)"
fill="#000000" stroke="none">
<path d="M0 1280 l0 -1280 1280 0 1280 0 0 1280 0 1280 -1280 0 -1280 0 0
-1280z m1446 939 c373 -66 673 -350 766 -726 31 -124 30 -313 0 -437 -27 -106
-94 -253 -156 -340 -124 -173 -323 -310 -537 -368 -117 -32 -365 -32 -481 0
-346 95 -607 366 -695 720 -25 102 -23 333 5 434 102 372 371 631 742 714 69
15 277 17 356 3z"/>
<path d="M1119 2035 c-274 -62 -491 -258 -578 -525 -64 -194 -38 -441 66 -620
58 -100 209 -246 309 -297 127 -66 216 -87 364 -87 137 0 207 14 316 64 193
87 352 263 420 465 32 97 44 285 25 386 -31 154 -108 295 -224 409 -82 82
-182 142 -301 182 -77 26 -109 31 -211 34 -81 3 -141 -1 -186 -11z m54 -338
c40 -20 81 -45 91 -56 18 -19 19 -19 82 25 122 83 250 96 356 37 58 -32 110
-99 128 -161 24 -87 0 -259 -44 -317 -14 -19 -15 -17 -16 28 l0 47 -140 0
-140 0 0 -70 0 -70 -70 0 -70 0 0 -140 0 -139 53 -3 52 -3 -82 -78 -82 -79
-178 160 c-202 181 -248 227 -303 313 -58 90 -75 148 -75 254 1 78 5 97 28
141 31 60 93 117 151 138 71 27 172 16 259 -27z m517 -542 l0 -75 75 0 75 0 0
-60 0 -60 -75 0 -75 0 0 -75 0 -75 -65 0 -65 0 0 75 0 75 -70 0 -70 0 0 60 0
60 70 0 70 0 0 75 0 75 65 0 65 0 0 -75z"/>
<path d="M966 1630 c-35 -11 -73 -45 -94 -85 -17 -33 -22 -128 -9 -187 6 -31
12 -38 31 -38 22 0 24 4 24 63 1 99 36 165 118 217 24 15 41 30 37 34 -9 8
-72 6 -107 -4z"/>
</g>
</svg>
